{
	"type": "lyriawerkbank:crafting_nbt_shaped",
	"group": "lyriawerkbank:robuste_doppelklinge",
	"name": "Robuste Doppelklinge",
	"pattern": [
		" V ",
		"RO ",
		" V "
	],
	"key": {
		"R": {
			"constant": "lyriawerkbank:robuster_orb",
			"name": "Robuster Orb"
		},
		"V": {
			"constant": "lyriawerkbank:veredelter_eisenbarren",
			"name": "Veredelter Eisenbarren"
		},
		"O": {
			"constant": "lyriawerkbank:robustes_griffstueck",
			"name": "Robustes Griffstück"
		}
	},
	"result": {
		"constant": "lyriawerkbank:robuste_doppelklinge"
	}
}
