{
	"type": "lyriawerkbank:crafting_nbt_shaped",
	"group": "lyriawerkbank:robuste_klinge",
	"name": "Robuste Klinge",
	"pattern": [
		" V ",
		" V ",
		"GRO"
	],
	"key": {
		"R": {
			"constant": "lyriawerkbank:robustes_griffstueck",
			"name": "Robustes Griffstück"
		},
		"V": {
			"constant": "lyriawerkbank:veredelter_eisenbarren",
			"name": "Veredelter Eisenbarren"
		},
		"G": {
			"constant": "lyriawerkbank:geschliffener_opal",
			"name": "Geschliffener Opal"
		},
		"O": {
			"constant": "lyriawerkbank:robustes_orbfragment",
			"name": "Robustes Orbfragment"
		}
	},
	"result": {
		"constant": "lyriawerkbank:robuste_klinge"
	}
}
