{
	"type": "lyriawerkbank:crafting_nbt_shaped",
	"group": "lyriawerkbank:edelsteinbesetzter_mentalfokus",
	"name": "Edelsteinbesetzter Mentalfokus",
	"pattern": [
		"VEV",
		" V ",
		" DG"
	],
	"key": {
		"D": {
			"constant": "lyriawerkbank:edelsteinbesetzter_zauberstabrohling",
			"name": "Edelsteinbesetzter Zauberstabrohling"
		},
		"E": {
			"constant": "lyriawerkbank:edelsteinbesetzter_orb",
			"name": "Edelsteinbesetzter Orb"
		},
		"V": {
			"constant": "lyriawerkbank:veredeltes_tropenholz",
			"name": "Veredeltes Tropenholz"
		},
		"G": {
			"constant": "lyriawerkbank:gravierter_opal",
			"name": "Gravierter Opal"
		}
	},
	"result": {
		"constant": "lyriawerkbank:edelsteinbesetzter_mentalfokus"
	}
}
