{
	"type": "lyriawerkbank:crafting_nbt_shaped",
	"group": "lyriawerkbank:schlichter_mentalstab",
	"name": "Schlichter Mentalstab",
	"pattern": [
		"GEG",
		" G ",
		" SC"
	],
	"key": {
		"S": {
			"constant": "lyriawerkbank:schlichter_zauberstabrohling",
			"name": "Schlichter Zauberstabrohling"
		},
		"C": {
			"constant": "lyriawerkbank:geschliffener_diamant",
			"name": "Geschliffener Diamant"
		},
		"E": {
			"constant": "lyriawerkbank:einfacher_orb",
			"name": "Einfacher Orb"
		},
		"G": {
			"constant": "lyriawerkbank:gehobeltes_fichtenholz",
			"name": "Gehobeltes Fichtenholz"
		}
	},
	"result": {
		"constant": "lyriawerkbank:schlichter_mentalstab"
	}
}
