{
	"type": "lyriawerkbank:crafting_nbt_shaped",
	"group": "lyriawerkbank:gebratene_taube",
	"name": "Gebratene Taube",
	"pattern": [
		"KBC",
		" H ",
		"   "
	],
	"key": {
		"B": {
			"item": "minecraft:bread"
		},
		"C": {
			"item": "minecraft:carrot"
		},
		"H": {
			"item": "minecraft:chicken"
		},
		"K": {
			"constant": "lyriawerkbank:kuerbiskernoel",
			"name": "Kürbiskernöl"
		}
	},
	"result": {
		"constant": "lyriawerkbank:gebratene_taube"
	}
}
