{
	"type": "lyriawerkbank:crafting_nbt_shaped",
	"group": "lyriawerkbank:kutteln",
	"name": "Kutteln",
	"pattern": [
		" C ",
		"PBP",
		"   "
	],
	"key": {
		"P": {
			"item": "minecraft:potato"
		},
		"B": {
			"item": "minecraft:beef"
		},
		"C": {
			"item": "minecraft:carrot"
		}
	},
	"result": {
		"constant": "lyriawerkbank:kutteln"
	}
}
