{
	"type": "lyriawerkbank:crafting_nbt_shaped",
	"group": "lyriawerkbank:robustes_hackbeil",
	"name": "Robustes Hackbeil",
	"pattern": [
		"EG ",
		"VG ",
		" RD"
	],
	"key": {
		"R": {
			"constant": "lyriawerkbank:robustes_griffstueck",
			"name": "Robustes Griffstück"
		},
		"D": {
			"item": "minecraft:diamond"
		},
		"E": {
			"constant": "lyriawerkbank:einfacher_stahlbarren",
			"name": "Einfacher Stahlbarren"
		},
		"V": {
			"constant": "lyriawerkbank:veredelter_eisenbarren",
			"name": "Veredelter Eisenbarren"
		},
		"G": {
			"constant": "lyriawerkbank:gehobeltes_tropenholz",
			"name": "Gehobeltes Tropenholz"
		}
	},
	"result": {
		"constant": "lyriawerkbank:robustes_hackbeil"
	}
}
