{
	"type": "lyriawerkbank:crafting_nbt_shaped",
	"group": "lyriawerkbank:robuste_fleischerklinge",
	"name": "Robuste Fleischerklinge",
	"pattern": [
		"  V",
		" V ",
		"RD "
	],
	"key": {
		"R": {
			"constant": "lyriawerkbank:robustes_griffstueck",
			"name": "Robustes Griffstück"
		},
		"D": {
			"item": "minecraft:diamond"
		},
		"V": {
			"constant": "lyriawerkbank:veredelter_eisenbarren",
			"name": "Veredelter Eisenbarren"
		}
	},
	"result": {
		"constant": "lyriawerkbank:robuste_fleischerklinge"
	}
}
