{
	"type": "lyriawerkbank:crafting_nbt_shaped",
	"group": "lyriawerkbank:verstaerkte_fleischerklinge",
	"name": "Verstärkte Fleischerklinge",
	"pattern": [
		"  E",
		" E ",
		"VD "
	],
	"key": {
		"D": {
			"item": "minecraft:diamond"
		},
		"E": {
			"constant": "lyriawerkbank:einfacher_stahlbarren",
			"name": "Einfacher Stahlbarren"
		},
		"V": {
			"constant": "lyriawerkbank:verstaerktes_griffstueck",
			"name": "Verstärktes Griffstück"
		}
	},
	"result": {
		"constant": "lyriawerkbank:verstaerkte_fleischerklinge"
	}
}
