{
	"type": "lyriawerkbank:crafting_nbt_shaped",
	"group": "lyriawerkbank:robuster_orb",
	"name": "Robuster Orb",
	"pattern": [
		"R R",
		" G ",
		"R R"
	],
	"key": {
		"R": {
			"constant": "lyriawerkbank:robustes_orbfragment",
			"name": "Robustes Orbfragment"
		},
		"G": {
			"constant": "lyriawerkbank:geschliffener_opal",
			"name": "Geschliffener Opal"
		}
	},
	"result": {
		"constant": "lyriawerkbank:robuster_orb"
	}
}
