{
	"type": "lyriawerkbank:crafting_nbt_shaped",
	"group": "lyriawerkbank:runenverzierter_orb",
	"name": "Runenverzierter Orb",
	"pattern": [
		"R R",
		" G ",
		"R R"
	],
	"key": {
		"R": {
			"constant": "lyriawerkbank:runenverziertes_orbfragment",
			"name": "Runenverziertes Orbfragment"
		},
		"G": {
			"constant": "lyriawerkbank:gravierter_smaragd",
			"name": "Gravierter Smaragd"
		}
	},
	"result": {
		"constant": "lyriawerkbank:runenverzierter_orb"
	}
}
