{
	"type": "lyriawerkbank:crafting_nbt_shaped",
	"group": "lyriawerkbank:runenverziertes_orbfragment",
	"name": "Runenverziertes Orbfragment",
	"pattern": [
		"   ",
		"MEK",
		"   "
	],
	"key": {
		"E": {
			"item": "minecraft:ender_pearl"
		},
		"K": {
			"constant": "lyriawerkbank:knochenmarksekret",
			"name": "Knochenmarksekret"
		},
		"M": {
			"item": "minecraft:magma_cream",
			"count": 4,
			"type": "lyriawerkbank:count_ingredient"
		}
	},
	"result": {
		"constant": "lyriawerkbank:runenverziertes_orbfragment",
		"count": 2
	}
}
