{
	"type": "lyriawerkbank:crafting_nbt_shaped",
	"group": "lyriawerkbank:schlichtes_orbfragment",
	"name": "Schlichtes Orbfragment",
	"pattern": [
		"   ",
		"MER",
		"   "
	],
	"key": {
		"R": {
			"item": "minecraft:rotten_flesh",
			"count": 16,
			"type": "lyriawerkbank:count_ingredient"
		},
		"E": {
			"item": "minecraft:ender_pearl"
		},
		"M": {
			"constant": "lyriawerkbank:moehrensaft",
			"name": "Möhrensaft"
		}
	},
	"result": {
		"constant": "lyriawerkbank:schlichtes_orbfragment",
		"count": 2
	}
}
