{
	"type": "lyriawerkbank:crafting_nbt_shaped",
	"group": "lyriawerkbank:seelensekret",
	"name": "Seelensekret",
	"pattern": [
		"OBL",
		"GRG",
		" G "
	],
	"key": {
		"B": {
			"item": "minecraft:brown_mushroom",
			"count": 10,
			"type": "lyriawerkbank:count_ingredient"
		},
		"R": {
			"item": "minecraft:red_mushroom",
			"count": 10,
			"type": "lyriawerkbank:count_ingredient"
		},
		"G": {
			"constant": "lyriawerkbank:geschliffenes_tropenholz",
			"name": "Geschliffenes Tropenholz"
		},
		"L": {
			"item": "minecraft:blaze_rod"
		},
		"O": {
			"constant": "lyriawerkbank:opium",
			"name": "Opium"
		}
	},
	"result": {
		"constant": "lyriawerkbank:seelensekret",
		"count": 4
	}
}
