{
	"type": "lyriawerkbank:crafting_nbt_shaped",
	"group": "lyriawerkbank:viskosesekret",
	"name": "Viskosesekret",
	"pattern": [
		" SB",
		"GMG",
		" G "
	],
	"key": {
		"B": {
			"item": "minecraft:blaze_rod"
		},
		"S": {
			"item": "minecraft:salmon",
			"count": 8,
			"type": "lyriawerkbank:count_ingredient"
		},
		"G": {
			"constant": "lyriawerkbank:geschliffenes_tropenholz",
			"name": "Geschliffenes Tropenholz"
		},
		"M": {
			"item": "minecraft:magma_cream",
			"count": 4,
			"type": "lyriawerkbank:count_ingredient"
		}
	},
	"result": {
		"constant": "lyriawerkbank:viskosesekret",
		"count": 8
	}
}
