{
	"type": "lyriawerkbank:crafting_nbt_shaped",
	"group": "lyriawerkbank:sattel",
	"name": "Sattel",
	"pattern": [
		"LLL",
		"E E",
		"I I"
	],
	"key": {
		"E": {
			"item": "minecraft:lead"
		},
		"I": {
			"item": "minecraft:iron_ingot"
		},
		"L": {
			"item": "minecraft:leather",
			"count": 2,
			"type": "lyriawerkbank:count_ingredient"
		}
	},
	"result": {
		"constant": "lyriawerkbank:sattel"
	}
}
