{
	"type": "lyriawerkbank:crafting_nbt_shaped",
	"group": "lyriawerkbank:trope",
	"name": "Trope",
	"pattern": [
		"   ",
		"   ",
		"JJJ"
	],
	"key": {
		"J": {
			"item": "minecraft:jungle_wood"
		}
	},
	"result": {
		"constant": "lyriawerkbank:trope",
		"count": 3
	}
}
