{
	"type": "lyriawerkbank:crafting_nbt_shaped",
	"group": "lyriawerkbank:leinenhose_des_hg",
	"name": "Leinenhose Des H.g.",
	"pattern": [
		"ESE",
		"S S",
		"S S"
	],
	"key": {
		"S": {
			"constant": "lyriawerkbank:spaltleder",
			"name": "Spaltleder"
		},
		"E": {
			"constant": "lyriawerkbank:einfaches_stahlfragment",
			"name": "Einfaches Stahlfragment"
		}
	},
	"result": {
		"constant": "lyriawerkbank:leinenhose_des_hg"
	}
}
