{
	"type": "lyriawerkbank:crafting_nbt_shaped",
	"group": "lyriawerkbank:blaubeermuffin",
	"name": "Blaubeermuffin",
	"pattern": [
		" L ",
		"WCW",
		"   "
	],
	"key": {
		"C": {
			"item": "minecraft:cocoa_beans"
		},
		"W": {
			"item": "minecraft:wheat"
		},
		"L": {
			"item": "minecraft:lapis_lazuli"
		}
	},
	"result": {
		"constant": "lyriawerkbank:blaubeermuffin",
		"count": 4
	}
}
