{
	"type": "lyriawerkbank:crafting_nbt_shaped",
	"group": "lyriawerkbank:dekomprimiertes_eichenholz",
	"name": "Dekomprimiertes Eichenholz",
	"pattern": [
		"   ",
		"   ",
		" K "
	],
	"key": {
		"K": {
			"constant": "lyriawerkbank:komprimiertes_eichenholz",
			"name": "Komprimiertes Eichenholz"
		}
	},
	"result": {
		"constant": "lyriawerkbank:dekomprimiertes_eichenholz",
		"count": 9
	}
}
