{
	"type": "lyriawerkbank:crafting_nbt_shaped",
	"group": "lyriawerkbank:diamant_pferderuestung",
	"name": "Diamant Pferderüstung",
	"pattern": [
		"SSS",
		"GLG",
		"GLG"
	],
	"key": {
		"S": {
			"constant": "lyriawerkbank:spaltleder",
			"name": "Spaltleder",
			"count": 2,
			"type": "lyriawerkbank:count_constants_ingredient"
		},
		"G": {
			"constant": "lyriawerkbank:geschliffener_diamant",
			"name": "Geschliffener Diamant",
			"count": 4,
			"type": "lyriawerkbank:count_constants_ingredient"
		},
		"L": {
			"item": "minecraft:light_blue_wool",
			"count": 8,
			"type": "lyriawerkbank:count_ingredient"
		}
	},
	"result": {
		"constant": "lyriawerkbank:diamant_pferderuestung"
	}
}
