{
	"type": "lyriawerkbank:crafting_nbt_shaped",
	"group": "lyriawerkbank:drachenatem_des_feuers",
	"name": "Drachenatem des Feuers",
	"pattern": [
		"DER",
		"   ",
		"   "
	],
	"key": {
		"R": {
			"constant": "lyriawerkbank:drachenblut",
			"name": "Drachenblut",
			"count": 5,
			"type": "lyriawerkbank:count_constants_ingredient"
		},
		"D": {
			"constant": "lyriawerkbank:drachentraene",
			"name": "Drachenträne",
			"count": 5,
			"type": "lyriawerkbank:count_constants_ingredient"
		},
		"E": {
			"item": "minecraft:emerald"
		}
	},
	"result": {
		"constant": "lyriawerkbank:drachenatem_des_feuers"
	}
}
