{
	"type": "lyriawerkbank:crafting_nbt_shaped",
	"group": "lyriawerkbank:gravierter_opal",
	"name": "Gravierter Opal",
	"pattern": [
		"ZPS",
		"VPV",
		" V "
	],
	"key": {
		"P": {
			"constant": "lyriawerkbank:polierter_opal",
			"name": "Polierter Opal"
		},
		"S": {
			"constant": "lyriawerkbank:seelensekret",
			"name": "Seelensekret"
		},
		"V": {
			"constant": "lyriawerkbank:veredeltes_birkenholz",
			"name": "Veredeltes Birkenholz"
		},
		"Z": {
			"constant": "lyriawerkbank:zuckerrohrwachs",
			"name": "Zuckerrohrwachs"
		}
	},
	"result": {
		"constant": "lyriawerkbank:gravierter_opal"
	}
}
