{
	"type": "lyriawerkbank:crafting_nbt_shaped",
	"group": "lyriawerkbank:hochwertige_keilhaue",
	"name": "Hochwertige Keilhaue",
	"pattern": [
		"EVE",
		" G ",
		" HS"
	],
	"key": {
		"S": {
			"constant": "lyriawerkbank:geschliffener_achat",
			"name": "Geschliffener Achat"
		},
		"E": {
			"constant": "lyriawerkbank:einfacher_stahlbarren",
			"name": "Einfacher Stahlbarren"
		},
		"V": {
			"constant": "lyriawerkbank:veredelter_kupferbarren",
			"name": "Veredelter Kupferbarren"
		},
		"G": {
			"constant": "lyriawerkbank:geschliffenes_eichenholz",
			"name": "Geschliffenes Eichenholz"
		},
		"H": {
			"constant": "lyriawerkbank:hochwertiges_griffstueck",
			"name": "Hochwertiges Griffstück"
		}
	},
	"result": {
		"constant": "lyriawerkbank:hochwertige_keilhaue"
	}
}
