{
	"type": "lyriawerkbank:crafting_nbt_shaped",
	"group": "lyriawerkbank:polierter_smaragd",
	"name": "Polierter Smaragd",
	"pattern": [
		"FGS",
		"EGE",
		" E "
	],
	"key": {
		"S": {
			"constant": "lyriawerkbank:sumpfsekret",
			"name": "Sumpfsekret"
		},
		"E": {
			"constant": "lyriawerkbank:geschliffenes_tropenholz",
			"name": "Geschliffenes Tropenholz"
		},
		"F": {
			"constant": "lyriawerkbank:filz",
			"name": "Filz"
		},
		"G": {
			"constant": "lyriawerkbank:geschliffener_smaragd",
			"name": "Geschliffener Smaragd"
		}
	},
	"result": {
		"constant": "lyriawerkbank:polierter_smaragd"
	}
}
