{
	"type": "lyriawerkbank:crafting_nbt_shaped",
	"group": "lyriawerkbank:schlichte_siedlerspitzhacke",
	"name": "Schlichte Siedlerspitzhacke",
	"pattern": [
		"EVE",
		" G ",
		" SU"
	],
	"key": {
		"S": {
			"constant": "lyriawerkbank:schlichtes_griffstueck",
			"name": "Schlichtes Griffstück"
		},
		"E": {
			"constant": "lyriawerkbank:einfacher_kupferbarren",
			"name": "Einfacher Kupferbarren"
		},
		"U": {
			"constant": "lyriawerkbank:unbearbeiteter_opal",
			"name": "Unbearbeiteter Opal"
		},
		"V": {
			"constant": "lyriawerkbank:veredelter_eisenbarren",
			"name": "Veredelter Eisenbarren"
		},
		"G": {
			"constant": "lyriawerkbank:gehobeltes_eichenholz",
			"name": "Gehobeltes Eichenholz"
		}
	},
	"result": {
		"constant": "lyriawerkbank:schlichte_siedlerspitzhacke"
	}
}
