{
	"type": "lyriawerkbank:crafting_nbt_shaped",
	"group": "lyriawerkbank:unbearbeiteter_saphir",
	"name": "Unbearbeiteter Saphir",
	"pattern": [
		" L ",
		"LDL",
		" L "
	],
	"key": {
		"D": {
			"item": "minecraft:diamond"
		},
		"L": {
			"item": "minecraft:lapis_lazuli"
		}
	},
	"result": {
		"constant": "lyriawerkbank:unbearbeiteter_saphir"
	}
}
