{
	"type": "lyriawerkbank:crafting_nbt_shaped",
	"group": "lyriawerkbank:veredeltes_kupferfragment",
	"name": "Veredeltes Kupferfragment",
	"pattern": [
		" E ",
		"EKE",
		" E "
	],
	"key": {
		"E": {
			"constant": "lyriawerkbank:einfacher_kupferbarren",
			"name": "Einfacher Kupferbarren"
		},
		"K": {
			"constant": "lyriawerkbank:kraeutersud",
			"name": "Kräutersud"
		}
	},
	"result": {
		"constant": "lyriawerkbank:veredeltes_kupferfragment",
		"count": 3
	}
}
