{
	"type": "lyriawerkbank:crafting_nbt_shaped",
	"group": "lyriawerkbank:edelsteinbesetzte_zimmermannsaxt",
	"name": "Edelsteinbesetzte Zimmermannsaxt",
	"pattern": [
		" VV",
		" EV",
		" DP"
	],
	"key": {
		"P": {
			"constant": "lyriawerkbank:polierter_smaragd",
			"name": "Polierter Smaragd"
		},
		"D": {
			"constant": "lyriawerkbank:edelsteinbesetztes_griffstueck",
			"name": "Edelsteinbesetztes Griffstück"
		},
		"E": {
			"constant": "lyriawerkbank:veredeltes_schwarzeichenholz",
			"name": "Veredeltes Schwarzeichenholz"
		},
		"V": {
			"constant": "lyriawerkbank:veredelter_stahlbarren",
			"name": "Veredelter Stahlbarren"
		}
	},
	"result": {
		"constant": "lyriawerkbank:edelsteinbesetzte_zimmermannsaxt"
	}
}
