{
	"type": "lyriawerkbank:crafting_nbt_shaped",
	"group": "lyriawerkbank:gehobeltes_eichenholz",
	"name": "Gehobeltes Eichenholz",
	"pattern": [
		"IGI",
		"OOO",
		"OOO"
	],
	"key": {
		"G": {
			"item": "minecraft:gold_nugget"
		},
		"I": {
			"item": "minecraft:iron_nugget",
			"count": 3,
			"type": "lyriawerkbank:count_ingredient"
		},
		"O": {
			"item": "minecraft:oak_log"
		}
	},
	"result": {
		"constant": "lyriawerkbank:gehobeltes_eichenholz",
		"count": 3
	}
}
