{
	"type": "lyriawerkbank:crafting_nbt_shaped",
	"group": "lyriawerkbank:robuster_zauberstabrohling",
	"name": "Robuster Zauberstabrohling",
	"pattern": [
		"  R",
		" G ",
		"E  "
	],
	"key": {
		"R": {
			"constant": "lyriawerkbank:robustes_orbfragment",
			"name": "Robustes Orbfragment"
		},
		"E": {
			"constant": "lyriawerkbank:gehobeltes_tropenholz",
			"name": "Gehobeltes Tropenholz"
		},
		"G": {
			"constant": "lyriawerkbank:gehobeltes_fichtenholz",
			"name": "Gehobeltes Fichtenholz"
		}
	},
	"result": {
		"constant": "lyriawerkbank:robuster_zauberstabrohling"
	}
}
