{
	"type": "lyriawerkbank:crafting_nbt_shaped",
	"group": "lyriawerkbank:veredeltes_schwarzeichenholz",
	"name": "Veredeltes Schwarzeichenholz",
	"pattern": [
		" WB",
		"GGG",
		"GGG"
	],
	"key": {
		"B": {
			"constant": "lyriawerkbank:beize",
			"name": "Beize"
		},
		"W": {
			"item": "minecraft:white_wool"
		},
		"G": {
			"constant": "lyriawerkbank:geschliffenes_schwarzeichenholz",
			"name": "Geschliffenes Schwarzeichenholz"
		}
	},
	"result": {
		"constant": "lyriawerkbank:veredeltes_schwarzeichenholz",
		"count": 3
	}
}
