{
	"type": "lyriawerkbank:crafting_nbt_shaped",
	"group": "lyriawerkbank:lederbespannter_lichtfokus",
	"name": "Lederbespannter Lichtfokus",
	"pattern": [
		"GRG",
		" G ",
		" OE"
	],
	"key": {
		"R": {
			"constant": "lyriawerkbank:robuster_orb",
			"name": "Robuster Orb"
		},
		"E": {
			"constant": "lyriawerkbank:geschliffener_achat",
			"name": "Geschliffener Achat"
		},
		"G": {
			"constant": "lyriawerkbank:gehobeltes_tropenholz",
			"name": "Gehobeltes Tropenholz"
		},
		"O": {
			"constant": "lyriawerkbank:robuster_zauberstabrohling",
			"name": "Robuster Zauberstabrohling"
		}
	},
	"result": {
		"constant": "lyriawerkbank:lederbespannter_lichtfokus"
	}
}
