{
	"type": "lyriawerkbank:crafting_nbt_shaped",
	"group": "lyriawerkbank:schlichter_lichtfokus",
	"name": "Schlichter Lichtfokus",
	"pattern": [
		"GSG",
		" G ",
		" CE"
	],
	"key": {
		"S": {
			"constant": "lyriawerkbank:schlichter_orb",
			"name": "Schlichter Orb"
		},
		"C": {
			"constant": "lyriawerkbank:schlichter_zauberstabrohling",
			"name": "Schlichter Zauberstabrohling"
		},
		"E": {
			"constant": "lyriawerkbank:geschliffener_achat",
			"name": "Geschliffener Achat"
		},
		"G": {
			"constant": "lyriawerkbank:gehobeltes_tropenholz",
			"name": "Gehobeltes Tropenholz"
		}
	},
	"result": {
		"constant": "lyriawerkbank:schlichter_lichtfokus"
	}
}
