{
	"type": "lyriawerkbank:crafting_nbt_shaped",
	"group": "lyriawerkbank:robuste_doppelaxt",
	"name": "Robuste Doppelaxt",
	"pattern": [
		"VIE",
		" G ",
		"SRO"
	],
	"key": {
		"R": {
			"constant": "lyriawerkbank:robustes_griffstueck",
			"name": "Robustes Griffstück"
		},
		"S": {
			"constant": "lyriawerkbank:geschliffener_saphir",
			"name": "Geschliffener Saphir"
		},
		"E": {
			"constant": "lyriawerkbank:einfacher_stahlbarren",
			"name": "Einfacher Stahlbarren"
		},
		"V": {
			"constant": "lyriawerkbank:veredelter_eisenbarren",
			"name": "Veredelter Eisenbarren"
		},
		"G": {
			"constant": "lyriawerkbank:gehobeltes_eichenholz",
			"name": "Gehobeltes Eichenholz"
		},
		"I": {
			"item": "minecraft:iron_block"
		},
		"O": {
			"constant": "lyriawerkbank:robustes_orbfragment",
			"name": "Robustes Orbfragment"
		}
	},
	"result": {
		"constant": "lyriawerkbank:robuste_doppelaxt"
	}
}
