{
	"type": "lyriawerkbank:crafting_nbt_shaped",
	"group": "lyriawerkbank:runenverziertes_jagdmesser",
	"name": "Runenverziertes Jagdmesser",
	"pattern": [
		"V  ",
		" ER",
		"  U"
	],
	"key": {
		"R": {
			"constant": "lyriawerkbank:runenverziertes_griffstueck",
			"name": "Runenverziertes Griffstück"
		},
		"E": {
			"constant": "lyriawerkbank:veredelter_goldbarren",
			"name": "Veredelter Goldbarren"
		},
		"U": {
			"constant": "lyriawerkbank:runenverziertes_orbfragment",
			"name": "Runenverziertes Orbfragment"
		},
		"V": {
			"constant": "lyriawerkbank:veredelter_kupferbarren",
			"name": "Veredelter Kupferbarren"
		}
	},
	"result": {
		"constant": "lyriawerkbank:runenverziertes_jagdmesser"
	}
}
