{
	"type": "lyriawerkbank:crafting_nbt_shaped",
	"group": "lyriawerkbank:schlichtes_jagdmesser",
	"name": "Schlichtes Jagdmesser",
	"pattern": [
		"E  ",
		" VS",
		"  I"
	],
	"key": {
		"S": {
			"constant": "lyriawerkbank:schlichtes_griffstueck",
			"name": "Schlichtes Griffstück"
		},
		"E": {
			"constant": "lyriawerkbank:einfacher_kupferbarren",
			"name": "Einfacher Kupferbarren"
		},
		"V": {
			"constant": "lyriawerkbank:veredelter_eisenbarren",
			"name": "Veredelter Eisenbarren"
		},
		"I": {
			"constant": "lyriawerkbank:einfaches_orbfragment",
			"name": "Einfaches Orbfragment"
		}
	},
	"result": {
		"constant": "lyriawerkbank:schlichtes_jagdmesser"
	}
}
