{
	"type": "lyriawerkbank:crafting_nbt_shaped",
	"group": "lyriawerkbank:schlichte_kralle",
	"name": "Schlichte Kralle",
	"pattern": [
		"V V",
		"V V",
		"SC "
	],
	"key": {
		"S": {
			"constant": "lyriawerkbank:schlichter_orb",
			"name": "Schlichter Orb"
		},
		"C": {
			"constant": "lyriawerkbank:schlichtes_griffstueck",
			"name": "Schlichtes Griffstück"
		},
		"V": {
			"constant": "lyriawerkbank:veredelter_eisenbarren",
			"name": "Veredelter Eisenbarren"
		}
	},
	"result": {
		"constant": "lyriawerkbank:schlichte_kralle"
	}
}
