{
	"type": "lyriawerkbank:crafting_nbt_shaped",
	"group": "lyriawerkbank:schlichte_klaue",
	"name": "Schlichte Klaue",
	"pattern": [
		"   ",
		"V V",
		"ES "
	],
	"key": {
		"S": {
			"constant": "lyriawerkbank:schlichtes_griffstueck",
			"name": "Schlichtes Griffstück"
		},
		"E": {
			"constant": "lyriawerkbank:einfaches_orbfragment",
			"name": "Einfaches Orbfragment"
		},
		"V": {
			"constant": "lyriawerkbank:veredelter_eisenbarren",
			"name": "Veredelter Eisenbarren"
		}
	},
	"result": {
		"constant": "lyriawerkbank:schlichte_klaue"
	}
}
