{
	"type": "lyriawerkbank:crafting_nbt_shaped",
	"group": "lyriawerkbank:verstaerkte_kralle",
	"name": "Verstärkte Kralle",
	"pattern": [
		"E E",
		"E E",
		"VR "
	],
	"key": {
		"R": {
			"constant": "lyriawerkbank:verstaerktes_griffstueck",
			"name": "Verstärktes Griffstück"
		},
		"E": {
			"constant": "lyriawerkbank:einfacher_stahlbarren",
			"name": "Einfacher Stahlbarren"
		},
		"V": {
			"constant": "lyriawerkbank:verstaerkter_orb",
			"name": "Verstärkter Orb"
		}
	},
	"result": {
		"constant": "lyriawerkbank:verstaerkte_kralle"
	}
}
