{
	"type": "lyriawerkbank:crafting_nbt_shaped",
	"group": "lyriawerkbank:hochwertiger_jagdbogen",
	"name": "Hochwertiger Jagdbogen",
	"pattern": [
		" GS",
		"HOS",
		"PGS"
	],
	"key": {
		"P": {
			"constant": "lyriawerkbank:polierter_diamant",
			"name": "Polierter Diamant"
		},
		"S": {
			"item": "minecraft:string"
		},
		"G": {
			"constant": "lyriawerkbank:geschliffenes_birkenholz",
			"name": "Geschliffenes Birkenholz"
		},
		"H": {
			"constant": "lyriawerkbank:hochwertiges_griffstueck",
			"name": "Hochwertiges Griffstück"
		},
		"O": {
			"constant": "lyriawerkbank:hochwertiges_orbfragment",
			"name": "Hochwertiges Orbfragment"
		}
	},
	"result": {
		"constant": "lyriawerkbank:hochwertiger_jagdbogen"
	}
}
