{
	"type": "lyriawerkbank:crafting_nbt_shaped",
	"group": "lyriawerkbank:runenverzierter_waldlaeuferbogen",
	"name": "Runenverzierter Waldläuferbogen",
	"pattern": [
		" VS",
		"RUS",
		"PVS"
	],
	"key": {
		"P": {
			"constant": "lyriawerkbank:polierter_opal",
			"name": "Polierter Opal"
		},
		"R": {
			"constant": "lyriawerkbank:runenverziertes_griffstueck",
			"name": "Runenverziertes Griffstück"
		},
		"S": {
			"item": "minecraft:string"
		},
		"U": {
			"constant": "lyriawerkbank:runenverziertes_orbfragment",
			"name": "Runenverziertes Orbfragment"
		},
		"V": {
			"constant": "lyriawerkbank:veredeltes_birkenholz",
			"name": "Veredeltes Birkenholz"
		}
	},
	"result": {
		"constant": "lyriawerkbank:runenverzierter_waldlaeuferbogen"
	}
}
