{
	"type": "lyriawerkbank:crafting_nbt_shaped",
	"group": "lyriawerkbank:schlichter_jagdbogen",
	"name": "Schlichter Jagdbogen",
	"pattern": [
		" GS",
		"CES",
		"HGS"
	],
	"key": {
		"S": {
			"item": "minecraft:string"
		},
		"C": {
			"constant": "lyriawerkbank:schlichtes_griffstueck",
			"name": "Schlichtes Griffstück"
		},
		"E": {
			"constant": "lyriawerkbank:einfaches_orbfragment",
			"name": "Einfaches Orbfragment"
		},
		"G": {
			"constant": "lyriawerkbank:gehobeltes_birkenholz",
			"name": "Gehobeltes Birkenholz"
		},
		"H": {
			"constant": "lyriawerkbank:geschliffener_diamant",
			"name": "Geschliffener Diamant"
		}
	},
	"result": {
		"constant": "lyriawerkbank:schlichter_jagdbogen"
	}
}
