{
	"type": "lyriawerkbank:crafting_nbt_shaped",
	"group": "lyriawerkbank:einfacher_stab",
	"name": "Einfacher Stab",
	"pattern": [
		"EI ",
		" N ",
		"UI "
	],
	"key": {
		"E": {
			"constant": "lyriawerkbank:einfaches_orbfragment",
			"name": "Einfaches Orbfragment"
		},
		"U": {
			"constant": "lyriawerkbank:unbearbeiteter_achat",
			"name": "Unbearbeiteter Achat"
		},
		"I": {
			"constant": "lyriawerkbank:einfacher_kupferbarren",
			"name": "Einfacher Kupferbarren"
		},
		"N": {
			"constant": "lyriawerkbank:einfaches_griffstueck",
			"name": "Einfaches Griffstück"
		}
	},
	"result": {
		"constant": "lyriawerkbank:einfacher_stab"
	}
}
