{
	"type": "lyriawerkbank:crafting_nbt_shaped",
	"group": "lyriawerkbank:edelsteinbesetzter_kriegsbogen",
	"name": "Edelsteinbesetzter Kriegsbogen",
	"pattern": [
		" VS",
		"EDS",
		"GVS"
	],
	"key": {
		"S": {
			"item": "minecraft:string"
		},
		"D": {
			"constant": "lyriawerkbank:edelsteinbesetztes_orbfragment",
			"name": "Edelsteinbesetztes Orbfragment"
		},
		"E": {
			"constant": "lyriawerkbank:edelsteinbesetztes_griffstueck",
			"name": "Edelsteinbesetztes Griffstück"
		},
		"V": {
			"constant": "lyriawerkbank:veredeltes_akazienholz",
			"name": "Veredeltes Akazienholz"
		},
		"G": {
			"constant": "lyriawerkbank:gravierter_achat",
			"name": "Gravierter Achat"
		}
	},
	"result": {
		"constant": "lyriawerkbank:edelsteinbesetzter_kriegsbogen"
	}
}
