{
	"type": "lyriawerkbank:crafting_nbt_shaped",
	"group": "lyriawerkbank:runenverzierter_kriegsbogen",
	"name": "Runenverzierter Kriegsbogen",
	"pattern": [
		" VS",
		"RUS",
		"PVS"
	],
	"key": {
		"P": {
			"constant": "lyriawerkbank:polierter_opal",
			"name": "Polierter Opal"
		},
		"R": {
			"constant": "lyriawerkbank:runenverziertes_griffstueck",
			"name": "Runenverziertes Griffstück"
		},
		"S": {
			"item": "minecraft:string"
		},
		"U": {
			"constant": "lyriawerkbank:runenverziertes_orbfragment",
			"name": "Runenverziertes Orbfragment"
		},
		"V": {
			"constant": "lyriawerkbank:veredeltes_akazienholz",
			"name": "Veredeltes Akazienholz"
		}
	},
	"result": {
		"constant": "lyriawerkbank:runenverzierter_kriegsbogen"
	}
}
